<?xml version="1.0" encoding="UTF-8" standalone="no"?>
<!-- Created with Inkscape (http://www.inkscape.org/) -->

<svg
   xmlns:dc="http://purl.org/dc/elements/1.1/"
   xmlns:cc="http://creativecommons.org/ns#"
   xmlns:rdf="http://www.w3.org/1999/02/22-rdf-syntax-ns#"
   xmlns:svg="http://www.w3.org/2000/svg"
   xmlns="http://www.w3.org/2000/svg"
   xmlns:sodipodi="http://sodipodi.sourceforge.net/DTD/sodipodi-0.dtd"
   xmlns:inkscape="http://www.inkscape.org/namespaces/inkscape"
   id="svg4874"
   height="72"
   viewBox="0 0 72 72"
   width="72"
   version="1.1"
   sodipodi:docname="swipetoback.svg"
   inkscape:version="0.92.3 (2405546, 2018-03-11)">
  <defs
     id="defs1563" />
  <sodipodi:namedview
     pagecolor="#ffffff"
     bordercolor="#666666"
     borderopacity="1"
     objecttolerance="10"
     gridtolerance="10"
     guidetolerance="10"
     inkscape:pageopacity="0"
     inkscape:pageshadow="2"
     inkscape:window-width="1853"
     inkscape:window-height="1025"
     id="namedview1561"
     showgrid="true"
     inkscape:snap-page="true"
     inkscape:zoom="8.2888629"
     inkscape:cx="-5.5907679"
     inkscape:cy="39.954052"
     inkscape:window-x="67"
     inkscape:window-y="27"
     inkscape:window-maximized="1"
     inkscape:current-layer="layer3"
     showguides="false">
    <inkscape:grid
       type="xygrid"
       id="grid845" />
  </sodipodi:namedview>
  <metadata
     id="metadata4879">
    <rdf:RDF>
      <cc:Work
         rdf:about="">
        <dc:format>image/svg+xml</dc:format>
        <dc:type
           rdf:resource="http://purl.org/dc/dcmitype/StillImage" />
        <dc:title />
      </cc:Work>
    </rdf:RDF>
  </metadata>
  <g
     id="layer1"
     transform="translate(67.857 -102.51)">
    <rect
       id="rect4782-01"
       style="color:#000000;fill:none"
       transform="matrix(0,1,1,0,0,0)"
       height="96"
       width="96"
       y="-67.857"
       x="78.505" />
  </g>
  <g
     inkscape:groupmode="layer"
     id="layer2"
     inkscape:label="left">
    <path
       inkscape:connector-curvature="0"
       id="path4265-0-4-6"
       style="fill:#808080"
       d="m -45.525259,102.51203 v 3.711 c -1.8955,2.5231 -3.5711,5.002 -5.3988,7.7063 v 0.002 c -2.3819,3.5228 -4.718,7.1274 -6.811,10.812 -2.1347,3.7594 -4.7608,8.8798 -6.4004,12.396 l -0.0313,0.0688 -0.0459,0.18149 v -0.073 l -0.55907,1.1953 0.55908,1.1933 v -0.073 l 0.0459,0.18358 0.0313,0.0668 c 1.6395,3.5159 4.2657,8.6362 6.4004,12.396 2.0933,3.6854 4.4288,7.2912 6.811,10.814 1.8278,2.7045 3.503,5.1864 5.399,7.7104 l -1.51e-4,3.707 c -2.778,-3.6168 -5.519,-7.2421 -8.0002,-10.942 -3.2996,-4.9186 -6.254,-9.6912 -8.8639,-14.309 -2.3316,-4.1256 -4.0562,-7.6069 -5.4677,-10.75 1.4114,-3.1425 3.1365,-6.6227 5.4677,-10.748 2.6099,-4.6174 5.5643,-9.388 8.8639,-14.307 v -0.002 c 2.4813,-3.6995 5.2223,-7.3248 8.0002,-10.942 z"
       transform="translate(67.857,-102.51)" />
  </g>
  <g
     inkscape:groupmode="layer"
     id="layer3"
     inkscape:label="middle">
    <path
       inkscape:connector-curvature="0"
       id="path4224"
       style="color:#000000;font-variant-ligatures:normal;font-variant-position:normal;font-variant-caps:normal;font-variant-numeric:normal;font-variant-alternates:normal;font-feature-settings:normal;text-indent:0;text-decoration:none;text-decoration-line:none;text-decoration-style:solid;text-decoration-color:#000000;text-transform:none;text-orientation:mixed;white-space:normal;shape-padding:0;isolation:auto;mix-blend-mode:normal;solid-color:#000000;fill:#808080;stroke-width:1.32000005;color-rendering:auto;image-rendering:auto;shape-rendering:auto"
       d="M 64.504947,20.15847 64.509518,24 63.713471,25 C 63.076756,25.845751 62.608124,26.563471 62,27.463183 61.229028,28.603412 59.987017,30.426813 59.310253,31.618245 58.210253,33.460255 57.532752,34.862424 57,36 c 0.533069,1.138144 1.52341,2.584756 2.179054,3.739624 0.676737,1.191472 1.499865,2.579021 2.270877,3.719237 0.60761,0.899118 1.552558,2.260738 2.189788,3.107254 l 0.854719,1.007092 0.01051,4.265343 -2.0031,-2.436324 c -1.112205,-1.425864 -2.18856,-2.872716 -3.183312,-4.355868 -1.111189,-1.656468 -2.1087,-3.265416 -2.99244,-4.828956 -0.816631,-1.445004 -1.480776,-2.78322 -1.925748,-3.787212 l -0.190924,-0.43164 0.190924,-0.43164 c 0.457064,-1.024875 1.108998,-2.339964 1.925748,-3.785232 0.88374,-1.56354 1.881264,-3.17262 2.99244,-4.828956 0.994488,-1.482756 2.070816,-2.931588 3.183312,-4.357848 z"
       sodipodi:nodetypes="ccccccccccccccccccccc" />
    <path
       style="display:inline;fill:#808080;fill-opacity:1;fill-rule:nonzero;stroke:none;stroke-width:1.09978247"
       d="m 44.75,9.599496 -0.02133,4.126571 c -1.335886,1.774443 -2.632412,3.804341 -3.916759,5.704679 -1.627491,2.406987 -3.154497,4.870371 -4.584766,7.38848 -1.451655,2.556576 -3.184864,6.068216 -4.305468,8.471287 l -0.0022,0.0088 v 0.0022 l -0.326564,0.698247 0.326564,0.698247 v 0.0022 l 0.0022,0.0088 c 1.120604,2.403071 2.853813,5.914711 4.305468,8.471287 1.430269,2.518109 2.957275,4.981493 4.584766,7.38848 1.284347,1.900338 2.591536,3.932381 3.927422,5.706824 L 44.75,62.400024 C 42.46704,59.473177 40.333761,56.46648 38.314958,53.456473 36.04247,50.068935 34.134439,46.781 32.334911,43.59727 c -1.657042,-2.932072 -2.902037,-5.426652 -3.892968,-7.650588 0.990931,-2.223936 2.363888,-4.654534 4.02093,-7.586606 1.799528,-3.18373 3.664905,-6.396973 5.937393,-9.784511 C 40.419069,15.565558 42.46704,12.526871 44.75,9.600024 Z"
       id="path4265-0-4"
       inkscape:connector-curvature="0"
       sodipodi:nodetypes="cccccccccccccccccccccc" />
  </g>
  <g
     inkscape:groupmode="layer"
     id="layer4"
     inkscape:label="right" />
</svg>
